编号	名字	图象文件	特效宽度	特效高度	X中心	Y中心	"所在层顺(0玩家之下,1与玩家位置动态比较,2玩家之上)"	"播放方式(0正常播放,1四散播放)"	"播放参数1(0忽略,1X半径)"	"播放参数2(0忽略,1Y半径)"	"播放参数3(0忽略,1旋转角度)"	"播放参数4(0忽略,份数)"	"播放参数5(0忽略,1生命周期)"	每帧时间	渲染类型	渲染参数	帧索引表
id	name	image	width	height	offsetX	offsetY	layer	playMode	playArgs	playArgs	playArgs	playArgs	playArgs	frameTime	paintMode	paintArg	frameIndices
1	升级	0	92	128	46	104	2	0	5	5	0	16	1000	80	2	0	"0,1,2,3,4,5,6,7,8,9"
2	受到伤害	1	142	82	71	41	2	0	5	5	0	16	1000	80	2	0	"0,1,2,3,4,5"
3	椭圆四散	2	154	150	75	75	2	0	5	5	30	16	1000	80	2	0	"0,1,2,3,4,5,6,7,8,9"
4	1	3	237	208	118	104	2	0	5	5	0	16	1000	80	2	0	"0,1,2,3,4,5,6,7"
5	1	4	42	42	21	28	2	0	5	5	30	16	1000	80	2	0	"0,1,2,3,4,5"
6	1	5	107	108	52	70	2	0	5	5	0	16	1000	80	2	0	0
7	1	6	107	108	52	70	2	0	5	5	0	16	1000	80	2	0	0
8	1	7	104	104	54	78	2	0	5	5	0	16	1000	80	2	0	0
9	1	8	300	300	150	190	2	0	5	5	0	16	1000	80	2	0	"0,1,2,3,4,5,6,7,8,9,10,11,12"
10	1	9	300	300	150	190	2	0	5	5	0	16	1000	80	2	0	"0,1,2,3,4,5,6,7,8,9"
11	1	10	300	300	150	180	2	0	5	5	0	16	1000	80	2	0	"0,1,2,3,4,5,6,7,8"
12	1	11	300	300	150	180	2	0	5	5	0	16	1000	80	2	0	"0,1,2,3,4,5,6,7,8,9"
13	1	12	300	300	150	180	2	0	5	5	0	16	1000	80	2	0	"0,1,2,3,4,5,6,7,8,9"
14	1	13	300	300	150	200	2	0	5	5	0	16	1000	80	2	0	"0,1,2,3,4,5,6,7,8,9"
15	1	14	300	300	150	200	2	0	5	5	0	16	1000	80	2	0	"0,1,2,3,4,5,6,7,8,9"
16	1	15	300	300	150	210	2	0	5	5	0	16	1000	80	2	0	"0,1,2,3,4,5,6,7,8,9"
17	1	16	300	300	150	180	2	0	5	5	0	16	1000	80	2	0	"0,1,2,3,4,5,6,7,8,9"
18	1	17	300	300	150	200	2	0	5	5	0	16	1000	80	2	0	"0,1,2,3,4,5,6,7,8,9"
19	1	18	300	300	150	200	2	0	5	5	0	16	1000	80	2	0	"0,1,2,3,4,5,6,7,8,9"
20	1	19	300	300	150	170	2	0	5	5	0	16	1000	80	2	0	"0,1,2,3,4,5,6,7,8"
21	1	20	300	300	148	170	2	0	5	5	0	16	1000	80	2	0	"0,1,2,3,4,5,6,7,8"
22	1	21	66	66	33	60	2	0	5	5	0	16	1000	80	2	0	"0,1,2,3,4,5,6,7,8,9,10,11,12,13,14,15,16,17,18"
23	1	22	300	300	150	200	2	0	5	5	0	16	1000	80	2	0	"0,1,2,3,4,5,6,7,8,9"
24	1	23	300	300	150	180	2	0	5	5	0	16	1000	80	2	0	"0,1,2,3,4,5,6,7,8,9,10"
25	1	24	300	300	150	150	2	0	5	5	0	16	1000	80	2	0	"0,1,2,3,4,5,6,7,8,9,10,11,12,13,14,15,16,17,18"
26	1	25	300	300	150	150	2	0	5	5	0	16	1000	80	2	0	"0,1,2,3,4,5,6,7,8,9,10,11,12,13,14,15,16,17,18"
27	1	26	300	300	150	200	2	0	5	5	0	16	1000	80	2	0	"0,1,2,3,4,5,6,7,8,9"
28	1	27	210	210	105	105	2	0	5	5	0	16	1000	80	2	0	"0,1,2,3,4,5,6,7,8,9"
29	1	28	133	100	66	50	2	0	5	5	0	16	1000	80	2	0	"0,1,2,3,4,5,6,7,8,9,10,11,12,13,14,15,16"
30	1	29	192	192	96	120	2	0	5	5	0	16	1000	80	2	0	"0,1,2,3,4,5,6"
31	1	30	194	300	97	180	2	0	5	5	0	16	1000	80	2	0	"0,1,2,3,4,5,6,7,8,9"
32	1	31	300	300	150	150	2	0	5	5	0	16	1000	80	2	0	"0,1,2,3,4,5,6,7,8,9,10"
33	1	32	300	300	150	180	2	0	5	5	0	16	1000	80	2	0	"0,1,2,3,4,5,6,7,8,9,10,11,12"
34	1	33	300	300	150	150	2	0	5	5	0	16	1000	80	2	0	"0,1,2,3,4,5,6,7,8,9,10,11,12"
35	1	34	300	300	150	150	2	0	5	5	0	16	1000	80	2	0	"0,1,2,3,4,5,6,7,8,9,10,11,12"
36	1	35	185	185	92	92	2	0	5	5	0	16	1000	80	2	0	"0,1,2,3,4,5,6,7,8,9"
37	1	36	99	99	49	49	2	0	5	5	0	16	1000	80	2	0	"0,1,2,3,4,5,6,7,8"
38	1	37	224	106	112	90	2	0	5	5	0	16	1000	80	2	0	"0,1,2,3,4,5,6,7,8,9,10"
39	1	38	239	239	119	119	2	0	5	5	0	16	1000	80	2	0	"0,1,2,3,4,5,6,7,8"
40	1	39	163	163	81	81	2	0	5	5	0	16	1000	80	2	0	"0,1,2,3,4,5,6,7,8,9"
41	1	40	201	173	100	81	2	0	5	5	0	16	1000	80	2	0	"0,1,2,3,4,5"
42	1	41	141	141	70	70	2	0	5	5	0	16	1000	80	2	0	"0,1,2,3,4,5,6,7,8,9"
43	1	42	170	170	85	85	2	0	5	5	0	16	1000	80	2	0	"0,1,2,3,4,5,6,7,8,9"
44	1	43	63	63	31	100	2	0	5	5	0	16	1000	80	2	0	"0,1,2,3,4,5,6,7,8,9"
45	1	44	171	171	85	110	2	0	5	5	0	16	1000	80	2	0	"0,1,2,3,4,5,6,7,8,9,10,11,12,13,14,15,16,17,18,19"
46	1	45	146	146	73	88	2	0	5	5	0	16	1000	80	2	0	"0,1,2,3,4,5,6,7,8,9"
47	1	46	124	124	70	62	2	0	5	5	0	16	1000	80	2	0	"0,1,2,3,4,5"
48	1	47	132	132	70	80	2	0	5	5	0	16	1000	80	2	0	"0,1,2,3,4,5,6,7,8,9,10,11,12,13,14,15,16,17,18,19"
49	a	48	80	111	60	71	2	0	5	5	0	16	1000	80	2	0	"0,1,2,3,4,5,6,7,8,9"
50	a	49	55	150	48	90	2	0	5	5	150	16	1000	80	2	0	"0,1,2,3,4,5,6,7,8,9"
51	a	50	150	150	95	90	2	0	5	5	0	16	1000	80	2	0	"0,1,2,3,4,5,6,7,8,9"
52	枯木逢春	51	130	210	85	120	2	0	5	5	0	16	2000	80	2	0	"0,1,2,3,4,5,6,7,8,9"
53	a	52	130	210	85	120	2	0	5	5	0	16	1000	80	2	0	"0,1,2,3,4,5,6,7,8,9"
54	天雷敝甲	53	120	200	80	115	2	0	5	5	0	16	2000	80	2	0	"0,1,2,3,4,5,6,7,8,9"
55	五灵	54	90	180	65	105	1	1	7	7	30	16	2000	80	2	0	"0,1,2,3,4,5,6,7,8,9"
56	a	55	160	112	100	71	2	0	5	5	0	16	1000	80	2	0	"0,1,2,3,4,5,6,7,8,9"
57	a	56	90	180	65	105	2	0	5	5	0	16	1000	80	2	0	"0,1,2,3,4,5,6,7,8,9"
58	a	57	130	105	85	68	2	0	5	5	0	16	1000	80	2	0	"0,1,2,3,4,5,6,7,8,9"
59	a	58	150	150	95	90	2	0	5	5	0	16	1000	80	2	0	"0,1,2,3,4,5,6,7,8,9"
60	a	59	150	150	95	90	2	0	5	5	0	16	1000	80	4	ff0000	"0,1,2,3,4,5,6,7,8,9"