等级	升级所需经验	根骨	身法	悟性	耐力	技能点
level	exp	strength	constitution	spirit		skillPoints
0	0	2	3	2	3	1
1	272	8	9	6	7	
2	560	14	15	10	11	
3	1908	20	21	14	15	
4	2556	26	27	18	19	
5	4928	32	33	22	23	1
6	5936	38	39	26	27	
7	9424	44	45	30	31	
8	10792	50	51	34	35	
9	15360	56	57	38	39	
10	19200	62	63	42	43	1
11	12296	68	69	46	47	
12	24708	74	75	50	51	
13	43520	80	81	54	55	
14	57936	86	87	58	59	
15	83148	92	93	62	63	1
16	99840	98	99	66	67	
17	131296	104	105	70	71	
18	150128	110	111	74	75	
19	188160	116	117	78	79	
20	235200	122	123	82	83	1
21	51840	128	129	86	87	
22	103680	134	135	90	91	
23	169920	140	141	94	95	
24	226560	146	147	98	99	
25	307200	152	153	102	103	1
26	368640	158	159	106	107	
27	463680	164	165	110	111	
28	529920	170	171	114	115	
29	639360	176	177	118	119	
30	799200	182	183	122	123	1
31	352024	188	189	126	127	
32	636740	194	195	130	131	
33	1033872	200	201	134	135	
34	1390368	206	207	138	139	
35	1850844	212	213	142	143	1
36	2228916	218	219	146	147	
37	2753072	224	225	150	151	
38	3152008	230	231	154	155	
39	3740220	236	237	158	159	
40	5172440	242	243	162	163	1
41	5172440	248	249	166	167	
42	5172440	254	255	170	171	
43	5172440	260	261	174	175	
44	5172440	266	267	178	179	
45	5172440	272	273	182	183	1
46	5172440	278	279	186	187	
47	5172440	284	285	190	191	
48	5172440	290	291	194	195	
49	5172440	296	297	198	199	
50	5172440	302	303	202	203	1
