编号	图象文件	特效宽度	特效高度	X中心	Y中心	每帧时间	渲染类型	渲染参数	"相对层级(1角色之上,2角色之下)"	帧索引表
id	image	width	height	offsetX	offsetY	frameTime	paintMode	paintArg	layer	frameIndices
1	0	92	128	46	104	80	2	0	1	"0,1,2,3,4,5,6,7,8,9"
2	1	142	82	71	41	80	2	0	1	"0,1,2,3,4,5"
3	2	154	150	75	75	80	2	0	1	"0,1,2,3,4,5,6,7,8,9"
4	3	237	208	118	104	80	2	0	1	"0,1,2,3,4,5,6,7"
5	4	42	42	21	28	80	2	0	1	"0,1,2,3,4,5"
6	5	107	108	52	70	80	2	0	1	0
7	6	107	108	52	70	80	2	0	1	0
8	7	104	104	54	78	80	2	0	1	0
9	8	300	300	150	190	80	2	0	1	"0,1,2,3,4,5,6,7,8,9,10,11,12"
10	9	300	300	150	190	80	2	0	1	"0,1,2,3,4,5,6,7,8,9"
11	10	300	300	150	180	80	2	0	1	"0,1,2,3,4,5,6,7,8"
12	11	300	300	150	180	80	2	0	1	"0,1,2,3,4,5,6,7,8,9"
13	12	300	300	150	180	80	2	0	1	"0,1,2,3,4,5,6,7,8,9"
14	13	300	300	150	200	80	2	0	1	"0,1,2,3,4,5,6,7,8,9"
15	14	300	300	150	200	80	2	0	1	"0,1,2,3,4,5,6,7,8,9"
16	15	300	300	150	210	80	2	0	1	"0,1,2,3,4,5,6,7,8,9"
17	16	300	300	150	180	80	2	0	1	"0,1,2,3,4,5,6,7,8,9"
18	17	300	300	150	200	80	2	0	1	"0,1,2,3,4,5,6,7,8,9"
19	18	300	300	150	200	80	2	0	1	"0,1,2,3,4,5,6,7,8,9"
20	19	300	300	150	170	80	2	0	1	"0,1,2,3,4,5,6,7,8"
21	20	300	300	148	170	80	2	0	1	"0,1,2,3,4,5,6,7,8"
22	21	66	66	33	60	80	2	0	1	"0,1,2,3,4,5,6,7,8,9,10,11,12,13,14,15,16,17,18"
23	22	300	300	150	200	80	2	0	1	"0,1,2,3,4,5,6,7,8,9"
24	23	300	300	150	180	80	2	0	1	"0,1,2,3,4,5,6,7,8,9,10"
25	24	300	300	150	150	80	2	0	1	"0,1,2,3,4,5,6,7,8,9,10,11,12,13,14,15,16,17,18"
26	25	300	300	150	150	80	2	0	1	"0,1,2,3,4,5,6,7,8,9,10,11,12,13,14,15,16,17,18"
27	26	300	300	150	200	80	2	0	1	"0,1,2,3,4,5,6,7,8,9"
28	27	210	210	105	105	80	2	0	1	"0,1,2,3,4,5,6,7,8,9"
29	28	133	100	66	50	80	2	0	1	"0,1,2,3,4,5,6,7,8,9,10,11,12,13,14,15,16"
30	29	192	192	96	120	80	2	0	1	"0,1,2,3,4,5,6"
31	30	194	300	97	180	80	2	0	1	"0,1,2,3,4,5,6,7,8,9"
32	31	300	300	150	150	80	2	0	1	"0,1,2,3,4,5,6,7,8,9,10"
33	32	300	300	150	180	80	2	0	1	"0,1,2,3,4,5,6,7,8,9,10,11,12"
34	33	300	300	150	150	80	2	0	1	"0,1,2,3,4,5,6,7,8,9,10,11,12"
35	34	300	300	150	150	80	2	0	1	"0,1,2,3,4,5,6,7,8,9,10,11,12"
36	35	185	185	92	92	80	2	0	1	"0,1,2,3,4,5,6,7,8,9"
37	36	99	99	49	49	80	2	0	1	"0,1,2,3,4,5,6,7,8"
38	37	224	106	112	90	80	2	0	1	"0,1,2,3,4,5,6,7,8,9,10"
39	38	239	239	119	119	80	2	0	1	"0,1,2,3,4,5,6,7,8"
40	39	163	163	81	81	80	2	0	1	"0,1,2,3,4,5,6,7,8,9"
41	40	201	173	100	81	80	2	0	1	"0,1,2,3,4,5"
42	41	141	141	70	70	80	2	0	1	"0,1,2,3,4,5,6,7,8,9"
43	42	170	170	85	85	80	2	0	1	"0,1,2,3,4,5,6,7,8,9"
44	43	63	63	31	100	80	2	0	1	"0,1,2,3,4,5,6,7,8,9"
45	44	171	171	85	110	80	2	0	1	"0,1,2,3,4,5,6,7,8,9,10,11,12,13,14,15,16,17,18,19"
46	45	146	146	73	88	80	2	0	1	"0,1,2,3,4,5,6,7,8,9"
47	46	124	124	70	62	80	2	0	1	"0,1,2,3,4,5"
48	47	132	132	70	80	80	2	0	1	"0,1,2,3,4,5,6,7,8,9,10,11,12,13,14,15,16,17,18,19"
49	48	80	111	60	71	80	2	0	1	"0,1,2,3,4,5,6,7,8,9"
50	49	55	150	48	90	80	2	0	1	"0,1,2,3,4,5,6,7,8,9"
51	50	150	150	95	90	80	2	0	1	"0,1,2,3,4,5,6,7,8,9"
52	51	130	210	85	120	80	2	0	1	"0,1,2,3,4,5,6,7,8,9"
53	52	130	210	85	120	80	2	0	1	"0,1,2,3,4,5,6,7,8,9"
54	53	120	200	80	115	80	2	0	1	"0,1,2,3,4,5,6,7,8,9"
55	54	90	180	65	105	80	2	0	1	"0,1,2,3,4,5,6,7,8,9"
56	55	160	112	100	71	80	2	0	1	"0,1,2,3,4,5,6,7,8,9"
57	56	90	180	65	105	80	2	0	1	"0,1,2,3,4,5,6,7,8,9"
58	57	130	105	85	68	80	4	3ef520	1	"0,1,2,3,4,5,6,7,8,9"
59	58	150	150	95	90	80	4	ffff00	1	"0,1,2,3,4,5,6,7,8,9"
60	59	150	150	95	90	80	2	0	1	"0,1,2,3,4,5,6,7,8,9"
61	58	150	150	95	90	80	4	2c22fe	1	"0,1,2,3,4,5,6,7,8,9"
62	58	150	150	95	90	80	4	c019fe	1	"0,1,2,3,4,5,6,7,8,9"
63	59	150	150	95	90	80	4	fcff00	1	"0,1,2,3,4,5,6,7,8,9"