编号	名字	图象文件	帧尺寸	帧数	绘制模式	绘制参数	镜像参数1(镜像行数)	镜像参数2(起始Y)	镜像参数3(目标Y)	镜像参数4(镜像行数)	镜像参数5(起始Y)	镜像参数6(目标Y)
id	name	image	size	frames	paintMode	paintArgs	mirrorArgs	mirrorArgs	mirrorArgs	mirrorArgs	mirrorArgs	mirrorArgs
1	弓箭手普通攻击	1	123	5	2	0	5	0	738	5	1353	2091
2	未知	2	96	5	2	0	5	0	576	5	1056	1632
3	未知	3	96	5	2	0	5	0	576	5	1056	1632
4	未知	4	103	5	2	0	5	0	618	5	1133	1751
5	未知	5	78	7	2	0	5	0	468	5	858	1326
