name	image	imageType	sx	sy	dx	dy	frames	frameWidth	frameHeight	speed	interval	moveTime	nextTime	needPartition	renderMode	color
backGround	0	jpg	0	0	0	0	1	800	600	0	0	0	0	0	0	ffffff
backFog	1	gif	0	225	800	225	1	656	160	1	0	100	0	1	1	4F4B47
frontFog	3	gif	0	400	800	400	1	800	195	1	0	70	0	1	1	FFFFFF
upTip	9	gif	0	0	0	0	1	800	92	0	0	0	0	0	0	ffffff
downTip	10	gif	0	508	0	508	1	800	92	0	0	0	0	0	0	ffffff
