名字	图象编号	站立动画帧数	行走动画帧数	攻击动画帧数	图象宽度	图象高度	脚心点X	脚心点Y	选择区域X	选择区域Y	选择区域宽度	选择区域高度	飞行物出现位置X	飞行物出现位置Y
name	image	frameCounts	frameCounts	frameCounts	width	height	footX	footY	selectionX	selectionY	selectionWidth	selectionHeight	flyerX	flyerY
小蜜蜂	1	5	4	4	300	300								
	2				200	200								
	3				300	300								
	4				300	300								
	5				300	300								
	6				300	300								
	7				300	300								
	8				300	300								
	9				300	300								
	10				300	300								
	11				300	300								
	12				300	300								
	13				300	300								
	14				300	300								
	15				300	300
	16				300	300
	17				300	300
	18				300	300
	19				300	300
	20				300	300
	21				300	300
	22				300	300
	23				300	300
