分组	技能名称	图标	说明	x坐标	y坐标	前提技能	前提技能
1002002501	阵法：迷失	51	祭起阵法，使阵法范围内的目标每3秒有一定几率命中降低，阵法持续1分钟。	135	67	10020017	10010019
1001001901	筑基灵昭	67	一段时间内吸收你收到的法术伤害	108	100	10010017	0
1002001701	无相浩劫	58	对指定区域造成法术伤害，并减少其生命上限	162	100	10020013	0
1002002701	阵法：虚弱	49	祭起阵法，使阵法范围内的目标每3秒有一定几率伤害降低，阵法持续1分钟。	27	147	10010018	10020024
1001001801	渡劫明台	66	一段时间内吸收你收到的物理伤害	65	132	10010017	0
1001001701	固若金汤	57	一段时间内减少受到的物理伤害	110	140	10020012	0
1002001301	天雷敝甲	53	对指定区域造成物理伤害，降低目标防御	160	140	10020012	0
1002001801	虚元锉锐	59	对指定区域造成物理伤害，并使目标暂时失明	205	132	10020013	0
1002002901	阵法：流沙	47	祭起阵法，使阵法范围内的目标每3秒有一定几率移动速度降低，阵法持续1分钟。	243	147	10020018	10020019
1002002401	离火燎原	65	对指定区域造成法术伤害，并使目标持续受到伤害	49	182	10020016	0
1002001601	炙炎旋劲	56	对指定区域造成法术伤害，并减少其法力值	88	189	10020012	0
1002001201	五灵	52	对指定区域造成物理伤害	135	181	0	0
1002001401	枯木逢春	54	恢复周围队友和自己的生命	182	189	10020012	0
1002001901	根须缠绕	60	缠绕指定区域的目标，使其持续受到伤害并移动速度降低	221	182	10020014	0
1002002301	炎狱华盖	64	对指定区域造成法术伤害，一定时间降低目标法力上限	65	232	10020016	0
1002001501	仙露甘霖	55	恢复周围队友和自己的法力	135	229	10020012	0
1002002001	八方归元	61	持续恢复周围友方目标生命值，并增加生命上限	205	232	10020014	0
1002002601	阵法：杀戮	50	祭起阵法，使阵法范围内的目标每3秒有一定几率受到伤害，阵法持续1分钟。	68	272	10020023	10020022
1002002201	残月锁漪	63	对指定区域造成法术伤害，冰封目标一段时间	108	264	10020015	0
1002002101	凝水成冰	62	对指定区域造成法术伤害，冰冻目标一段时间	162	264	10020015	0
1002002801	阵法：扰乱	48	祭起阵法，使阵法范围内的目标每3秒有一定几率昏迷，阵法持续1分钟。	202	272	10020021	10020020
